^C:\USERS\ADMINISTRADOR\DESKTOP\TP3_PT1\PROJECT1\PROJECT1\DEBUG\MAIN.OBJ
C:\USERS\ADMINISTRADOR\DESKTOP\TP3_PT1\PROJECT1\DEBUG\PROJECT1.ILK
C:\USERS\ADMINISTRADOR\DESKTOP\TP3_PT1\PROJECT1\DEBUG\PROJECT1.EXE
